…
ourdata_withareaid <- left_join(ram$timeseries_values_views, ram$timeseries_units_views, 
  by = c("assessid", "stockid")) %>%
  rename(SSB = SSB.x, SSBunits = SSB.y, Total_Catch = TC.x, Total_Catch_units = TC.y) %>%
  left_join(ram$stock, by = "stockid") %>%
  left_join(ram$area, by = "areaid") %>%
  select("year", "country", "areaid", "scientificname", "commonname", "SSB", "SSBunits", "Total_Catch", "Total_Catch_units")

cod_only <- ourdata_withareaid %>%
  filter(commonname == "Atlantic cod")
cod_only
```

    ## # A tibble: 1,069 x 9
    ##     year country           areaid scientificname   commonname   SSB
    ##    <dbl>   <chr>            <chr>          <chr>        <chr> <dbl>
    ##  1  1850  Canada Canada-DFO-2J3KL   Gadus morhua Atlantic cod    NA
    ##  2  1851  Canada Canada-DFO-2J3KL   Gadus morhua Atlantic cod    NA
    ##  3  1852  Canada Canada-DFO-2J3KL   Gadus morhua Atlantic cod    NA
    ##  4  1853  Canada Canada-DFO-2J3KL   Gadus morhua Atlantic cod    NA
    ##  5  1854  Canada Canada-DFO-2J3KL   Gadus morhua Atlantic cod    NA
    ##  6  1855  Canada Canada-DFO-2J3KL   Gadus morhua Atlantic cod    NA
    ##  7  1856  Canada Canada-DFO-2J3KL   Gadus morhua Atlantic cod    NA
    ##  8  1857  Canada Canada-DFO-2J3KL   Gadus morhua Atlantic cod    NA
    ##  9  1858  Canada Canada-DFO-2J3KL   Gadus morhua Atlantic cod    NA
    ## 10  1859  Canada Canada-DFO-2J3KL   Gadus morhua Atlantic cod    NA
    ## # ... with 1,059 more rows, and 3 more variables: SSBunits <chr>,
    ## #   Total_Catch <dbl>, Total_Catch_units <chr>
…
``` r
test1 %>% 
  group_by(stockid) %>%
  distinct(stockid)
```

    ## # A tibble: 51 x 1
    ## # Groups:   stockid [51]
    ##             stockid
    ##               <chr>
    ##  1     ACADREDGOMGB
    ##  2           ALBAIO
    ##  3         ALBANATL
    ##  4   ARFLOUNDPCOAST
    ##  5      ATBTUNAEATL
    ##  6      ATBTUNAWATL
    ##  7     BGROCKPCOAST
    ##  8         BIGEYEIO
    ##  9        BKCDLFENI
    ## 10 BLACKROCKNPCOAST
    ## # ... with 41 more rows
…
``` r
test2 %>% 
  group_by(stockid) %>%
  distinct(stockid)
```

    ## # A tibble: 51 x 1
    ## # Groups:   stockid [51]
    ##             stockid
    ##               <chr>
    ##  1     ACADREDGOMGB
    ##  2           ALBAIO
    ##  3         ALBANATL
    ##  4   ARFLOUNDPCOAST
    ##  5      ATBTUNAEATL
    ##  6      ATBTUNAWATL
    ##  7     BGROCKPCOAST
    ##  8         BIGEYEIO
    ##  9        BKCDLFENI
    ## 10 BLACKROCKNPCOAST
    ## # ... with 41 more rows
…
